/home/gre_stag/.rbenv/versions/2.2.2/bin/ruby -r ./siteconf20150812-26413-drpr2v.rb extconf.rb
creating Makefile

make "DESTDIR=" clean

make "DESTDIR="
make: Nothing to be done for 'all'.

make "DESTDIR=" install
